{"strings": {
  "options" : {
    "copies": {
      "name": {
        "en": "Number of copies",
        "fr": "Nombre de copies "
      }
    },
    "media": {
      "name": {
        "en": "Media",
        "fr": "Format "
      }
    },
    "color": {
      "name": {
        "en": "Color",
        "fr": "Couleur "
      },
      "values": {
        "en": {
          "Gray": "Gray",
          "Black": "Black and white only",
          "Color": "Color"
        },
        "fr": {
          "Gray": "Nuances de gris",
          "Black": "Noir et blanc uniquement",
          "Color": "Couleur"
        }
      }
    },
    "sides": {
      "name": {
        "en": "Duplex / two sides printing",
        "fr": "Recto / verso "
      },
      "values": {
        "en": {
          "one-sided": "One sided",
          "two-sided-long-edge": "Two sided long edge",
          "two-sided-short-edge": "Two sided short edge"
        },
        "fr": {
          "one-sided": "Recto",
          "two-sided-long-edge": "Recto / verso bord long",
          "two-sided-short-edge": "Recto / verso bord court"
        }
      }
    },
    "quality": {
      "name": {
        "en": "quality",
        "fr": "Qualité "
      },
      "values": {
        "fr": {
          "Draft": "Brouillon",
          "Standard": "Standard",
          "High": "Haute"
        }
      }
    },
    "resolution": {
      "name": {
        "en": "Resolution",
        "fr": "Résolution "
      }
    },
    "number-up": {
      "name": {
        "en": "Multiple pages on one sheet",
        "fr": "Plusieurs pages sur une feuille "
      }
    },
    "page-list": {
      "name": {
        "en": "Pages to print (leave empty for all - example 1,3-5,16)",
        "fr": "Pages à imprimer (laisser vide pour toutes - exemple 1,3-5,16) "
      }
    },
    "landscape": {
      "name": {
        "en": "Landscape",
        "fr": "Paysage "
      }
    },
    "fit-to-page": {
      "name": {
        "en": "Fit to page",
        "fr": "Ajuster à la page "
      }
    }
  },
  "interface": {
    "0": {
      "fr": "En veille"
    },
    "1": {
      "fr": "Indisponible (probablement éteinte ou débranchée). Travaux dans la file :"
    },
    "2": {
      "fr": "Éteinte ou désactivée. Travaux dans la file :"
    },
    "3": {
      "fr": "En train d'imprimer. Travaux suivants dans la file :"
    },
    "4" : {
      "fr": "Impossible de récupérer le statut de l'imprimante : il est possible que le serveur d'impression soit éteint."
    },
    "5" : {
      "fr": "Statut inconnu, c'est peut-être un bug de CUPS."
    },
    "6" : {
      "fr": "Statut inconnu."
    },
    "7": {
      "fr": "Fichier :"
    },
    "8": {
      "fr": "Imprimer"
    },
    "9": {
      "fr": "Erreur :"
    },
    "10": {
        "fr": "Mo"
    },
    "11": {
      "fr": "paramètres incorrects."
    },
    "12": {
      "fr": "le fichier n'est pas au format PDF."
    },
    "13": {
      "fr": "Le nombre de copies n'est pas valide."
    },
    "14": {
      "fr": "Le nombre de copies est limité à"
    },
    "15": {
      "fr": "Le fichier"
    },
    "16": {
      "fr": "a été envoyé dans la file d'impression de l'imprimante"
    },
    "17": {
      "fr": "Mauvais format de liste de pages. Exemple : 1,3-5,16"
    },
    "18": {
      "fr": "Une erreur est survenue :"
    },
    "19": {
      "fr": "Le serveur d'impression est probablement éteint ou injoignable."
    },
    "20": {
      "fr": "Veuillez contacter l'administrateur."
    },
    "51": {
      "fr": "la taille du fichier dépasse la limite du serveur"
    },
    "52": {
      "fr": "la taille du fichier dépasse la limite autorisée"
    },
    "53": {
      "fr": "le fichier n'a été que partiellement téléchargé."
    },
    "54": {
      "fr": "aucun fichier n'a été sélectionné."
    },
    "56": {
      "fr": "un dossier temporaire est manquant."
    },
    "57": {
      "fr": "échec de l'écriture du fichier sur le disque."
    },
    "58": {
      "fr": "une extension PHP a arrêté l'envoi de fichier."
    }
  }
}
}
