{"printers": [
  {
    "cups-name": "basic-printer",
    "server": "localhost:631",
    "options": {
      "landscape": {
        "values": "bool"
      },
      "copies": {
        "default": "1"
      },
      "page-list": {}
    }
  },
  {
    "cups-name": "bigger-printer",
    "server": "[::1]",
    "name": {
      "en": "A bigger printer"
    },
    "location": {
      "en": "Building D level 3",
      "fr": "Bâtiment D niveau 3"
    },
    "options": {
      "copies": {
        "default": "1"
      },
      "landscape": {
        "values": "bool"
      },
      "fit-to-page": {
        "values": "bool",
        "default": true,
        "changeable": false
      },
      "page-list": {
      },
      "number-up": {
        "values": [
          "1", "2", "4", "6", "9", "16"
        ],
        "changeable": true
      }
    }
  },
  {
    "cups-name": "huge-printer",
    "name": {
      "en": "The huge printer",
      "fr": "Le gros copieur"
    },
    "location": {
      "en": "building C, room 114",
      "fr": "bâtiment C, bureau 114"
    },
    "server": "printers.mydomain.com",
    "link": "https://printers.mydomain.com:631/printers/huge-printer",
    "options": {
      "copies": {
        "default": "2"
      },
      "media": {
        "values": [
          "A4", "A3"
        ],
        "changeable": false
      },
      "color": {
        "values": [
          "Gray", "Black", "Color"
        ]
      },
      "sides": {
        "values": [
          "one-sided", "two-sided-long-edge", "two-sided-short-edge"
        ]
      },
      "quality": {
        "values": [
          "Draft", "Standard", "High"
        ]
      },
      "resolution": {
        "values": [
          "300dpi", "150dpi", "600dpi"
        ]
      },
      "number-up": {
        "values": [
          "1", "2", "4", "6", "9", "16"
        ],
        "changeable": false
      },
      "page-list": {}
    }
  }
]
}
